<?xml version="1.0" encoding="UTF-8" standalone="no"?>
<!-- Created with Inkscape (http://www.inkscape.org/) -->

<svg
   xmlns:dc="http://purl.org/dc/elements/1.1/"
   xmlns:cc="http://creativecommons.org/ns#"
   xmlns:rdf="http://www.w3.org/1999/02/22-rdf-syntax-ns#"
   xmlns:svg="http://www.w3.org/2000/svg"
   xmlns="http://www.w3.org/2000/svg"
   xmlns:sodipodi="http://sodipodi.sourceforge.net/DTD/sodipodi-0.dtd"
   xmlns:inkscape="http://www.inkscape.org/namespaces/inkscape"
   width="482.34009"
   height="43.295792"
   id="svg2"
   version="1.1"
   inkscape:version="0.47 r22583"
   sodipodi:docname="etapas-da-instanciacao.pdf">
  <defs
     id="defs4">
    <marker
       inkscape:stockid="Arrow2Lend"
       orient="auto"
       refY="0"
       refX="0"
       id="Arrow2Lend"
       style="overflow:visible">
      <path
         id="path3966"
         style="font-size:12px;fill-rule:evenodd;stroke-width:0.625;stroke-linejoin:round"
         d="M 8.7185878,4.0337352 -2.2072895,0.01601326 8.7185884,-4.0017078 c -1.7454984,2.3720609 -1.7354408,5.6174519 -6e-7,8.035443 z"
         transform="matrix(-1.1,0,0,-1.1,-1.1,0)" />
    </marker>
    <inkscape:perspective
       sodipodi:type="inkscape:persp3d"
       inkscape:vp_x="0 : 526.18109 : 1"
       inkscape:vp_y="0 : 1000 : 0"
       inkscape:vp_z="744.09448 : 526.18109 : 1"
       inkscape:persp3d-origin="372.04724 : 350.78739 : 1"
       id="perspective10" />
    <inkscape:perspective
       id="perspective3630"
       inkscape:persp3d-origin="0.5 : 0.33333333 : 1"
       inkscape:vp_z="1 : 0.5 : 1"
       inkscape:vp_y="0 : 1000 : 0"
       inkscape:vp_x="0 : 0.5 : 1"
       sodipodi:type="inkscape:persp3d" />
    <inkscape:perspective
       id="perspective3664"
       inkscape:persp3d-origin="0.5 : 0.33333333 : 1"
       inkscape:vp_z="1 : 0.5 : 1"
       inkscape:vp_y="0 : 1000 : 0"
       inkscape:vp_x="0 : 0.5 : 1"
       sodipodi:type="inkscape:persp3d" />
    <inkscape:perspective
       id="perspective3664-7"
       inkscape:persp3d-origin="0.5 : 0.33333333 : 1"
       inkscape:vp_z="1 : 0.5 : 1"
       inkscape:vp_y="0 : 1000 : 0"
       inkscape:vp_x="0 : 0.5 : 1"
       sodipodi:type="inkscape:persp3d" />
    <inkscape:perspective
       id="perspective4601"
       inkscape:persp3d-origin="0.5 : 0.33333333 : 1"
       inkscape:vp_z="1 : 0.5 : 1"
       inkscape:vp_y="0 : 1000 : 0"
       inkscape:vp_x="0 : 0.5 : 1"
       sodipodi:type="inkscape:persp3d" />
    <marker
       inkscape:stockid="Arrow2Lend"
       orient="auto"
       refY="0"
       refX="0"
       id="Arrow2Lend-7"
       style="overflow:visible">
      <path
         id="path3966-0"
         style="font-size:12px;fill-rule:evenodd;stroke-width:0.625;stroke-linejoin:round"
         d="M 8.7185878,4.0337352 -2.2072895,0.01601326 8.7185884,-4.0017078 c -1.7454984,2.3720609 -1.7354408,5.6174519 -6e-7,8.035443 z"
         transform="matrix(-1.1,0,0,-1.1,-1.1,0)" />
    </marker>
    <inkscape:perspective
       id="perspective4601-1"
       inkscape:persp3d-origin="0.5 : 0.33333333 : 1"
       inkscape:vp_z="1 : 0.5 : 1"
       inkscape:vp_y="0 : 1000 : 0"
       inkscape:vp_x="0 : 0.5 : 1"
       sodipodi:type="inkscape:persp3d" />
    <marker
       inkscape:stockid="Arrow2Lend"
       orient="auto"
       refY="0"
       refX="0"
       id="Arrow2Lend-5"
       style="overflow:visible">
      <path
         id="path3966-06"
         style="font-size:12px;fill-rule:evenodd;stroke-width:0.625;stroke-linejoin:round"
         d="M 8.7185878,4.0337352 -2.2072895,0.01601326 8.7185884,-4.0017078 c -1.7454984,2.3720609 -1.7354408,5.6174519 -6e-7,8.035443 z"
         transform="matrix(-1.1,0,0,-1.1,-1.1,0)" />
    </marker>
  </defs>
  <sodipodi:namedview
     id="base"
     pagecolor="#ffffff"
     bordercolor="#666666"
     borderopacity="1.0"
     inkscape:pageopacity="0.0"
     inkscape:pageshadow="2"
     inkscape:zoom="1.4"
     inkscape:cx="211.69794"
     inkscape:cy="25.809403"
     inkscape:document-units="px"
     inkscape:current-layer="layer1"
     showgrid="false"
     inkscape:window-width="1280"
     inkscape:window-height="725"
     inkscape:window-x="0"
     inkscape:window-y="25"
     inkscape:window-maximized="1" />
  <metadata
     id="metadata7">
    <rdf:RDF>
      <cc:Work
         rdf:about="">
        <dc:format>image/svg+xml</dc:format>
        <dc:type
           rdf:resource="http://purl.org/dc/dcmitype/StillImage" />
        <dc:title></dc:title>
      </cc:Work>
    </rdf:RDF>
  </metadata>
  <g
     inkscape:label="Camada 1"
     inkscape:groupmode="layer"
     id="layer1"
     transform="translate(-16.677662,-58.382229)">
    <g
       id="g3707">
      <rect
         ry="20.552305"
         rx="21.231916"
         y="58.953857"
         x="17.24929"
         height="42.152534"
         width="82.572777"
         id="rect2816"
         style="color:#000000;fill:#729fcf;fill-opacity:0.60227272;fill-rule:nonzero;stroke:#000000;stroke-width:1.14325702;stroke-linecap:round;stroke-linejoin:miter;stroke-miterlimit:4;stroke-opacity:1;stroke-dasharray:none;stroke-dashoffset:0;marker:none;visibility:visible;display:inline;overflow:visible;enable-background:accumulate" />
      <flowRoot
         transform="matrix(0.57162851,0,0,0.57162851,-21.021166,25.509527)"
         style="font-size:16px;font-style:normal;font-weight:normal;text-align:center;text-anchor:middle;fill:#000000;fill-opacity:1;stroke:none;font-family:Bitstream Vera Sans"
         id="flowRoot2834"
         xml:space="preserve"><flowRegion
           id="flowRegion2836"><rect
             style="text-align:center;text-anchor:middle"
             y="75.54467"
             x="81.822357"
             height="46.467022"
             width="113.13708"
             id="rect2838" /></flowRegion><flowPara
           id="flowPara2840">Instanciação das Classes</flowPara></flowRoot>    </g>
    <flowRoot
       xml:space="preserve"
       id="flowRoot2842"
       style="font-size:16px;font-style:normal;font-weight:normal;fill:#000000;fill-opacity:1;stroke:none;font-family:Bitstream Vera Sans"><flowRegion
         id="flowRegion2844"><rect
           id="rect2846"
           width="6.0609155"
           height="16.162441"
           x="70.710678"
           y="56.351772" /></flowRegion><flowPara
         id="flowPara2848"></flowPara></flowRoot>    <g
       id="g3714"
       transform="translate(20.694584,0)">
      <rect
         ry="20.552305"
         rx="21.231916"
         y="58.953857"
         x="129.4294"
         height="42.152534"
         width="82.572777"
         id="rect2816-1"
         style="color:#000000;fill:#729fcf;fill-opacity:0.60227272;fill-rule:nonzero;stroke:#000000;stroke-width:1.14325702;stroke-linecap:round;stroke-linejoin:miter;stroke-miterlimit:4;stroke-opacity:1;stroke-dasharray:none;stroke-dashoffset:0;marker:none;visibility:visible;display:inline;overflow:visible;enable-background:accumulate" />
      <flowRoot
         transform="matrix(0.57162851,0,0,0.57162851,89.808023,24.623056)"
         style="font-size:16px;font-style:normal;font-weight:normal;text-align:center;text-anchor:middle;fill:#000000;fill-opacity:1;stroke:none;font-family:Bitstream Vera Sans"
         id="flowRoot2834-9"
         xml:space="preserve"><flowRegion
           id="flowRegion2836-9"><rect
             style="text-align:center;text-anchor:middle"
             y="75.54467"
             x="81.822357"
             height="44.699871"
             width="119.32211"
             id="rect2838-6" /></flowRegion><flowPara
           id="flowPara2840-0">Criação das Configurações</flowPara></flowRoot>    </g>
    <g
       id="g3721"
       transform="translate(51.038792,0)">
      <rect
         ry="20.552305"
         rx="21.231916"
         y="58.953857"
         x="231.95987"
         height="42.152534"
         width="82.572777"
         id="rect2816-1-6"
         style="color:#000000;fill:#729fcf;fill-opacity:0.60227272;fill-rule:nonzero;stroke:#000000;stroke-width:1.14325702;stroke-linecap:round;stroke-linejoin:miter;stroke-miterlimit:4;stroke-opacity:1;stroke-dasharray:none;stroke-dashoffset:0;marker:none;visibility:visible;display:inline;overflow:visible;enable-background:accumulate" />
      <flowRoot
         transform="matrix(0.57162851,0,0,0.57162851,192.3385,25.509527)"
         style="font-size:16px;font-style:normal;font-weight:normal;text-align:center;text-anchor:middle;fill:#000000;fill-opacity:1;stroke:none;font-family:Bitstream Vera Sans"
         id="flowRoot2834-9-1"
         xml:space="preserve"><flowRegion
           id="flowRegion2836-9-1"><rect
             style="text-align:center;text-anchor:middle"
             y="75.54467"
             x="81.822357"
             height="44.699871"
             width="119.32211"
             id="rect2838-6-4" /></flowRegion><flowPara
           id="flowPara2840-0-3">Realização do Treinamento</flowPara></flowRoot>    </g>
    <g
       id="g3728"
       transform="translate(91.999821,0)">
      <rect
         ry="20.552305"
         rx="21.231916"
         y="58.953857"
         x="323.87354"
         height="42.152534"
         width="82.572777"
         id="rect2816-1-2"
         style="color:#000000;fill:#729fcf;fill-opacity:0.60227272;fill-rule:nonzero;stroke:#000000;stroke-width:1.14325702;stroke-linecap:round;stroke-linejoin:miter;stroke-miterlimit:4;stroke-opacity:1;stroke-dasharray:none;stroke-dashoffset:0;marker:none;visibility:visible;display:inline;overflow:visible;enable-background:accumulate" />
      <flowRoot
         transform="matrix(0.57162851,0,0,0.57162851,284.25218,25.614474)"
         style="font-size:16px;font-style:normal;font-weight:normal;text-align:center;text-anchor:middle;fill:#000000;fill-opacity:1;stroke:none;font-family:Bitstream Vera Sans"
         id="flowRoot2834-9-7"
         xml:space="preserve"><flowRegion
           id="flowRegion2836-9-3"><rect
             style="text-align:center;text-anchor:middle"
             y="75.54467"
             x="81.822357"
             height="44.699871"
             width="119.32211"
             id="rect2838-6-3" /></flowRegion><flowPara
           id="flowPara2840-0-9">Análise dos Resultados</flowPara></flowRoot>    </g>
    <path
       style="fill:none;stroke:#000000;stroke-width:1.05855358px;stroke-linecap:butt;stroke-linejoin:miter;stroke-opacity:1;marker-end:url(#Arrow2Lend)"
       d="m 103.15171,80.048771 42.76614,0"
       id="path4390" />
    <path
       style="fill:none;stroke:#000000;stroke-width:1.05855358px;stroke-linecap:butt;stroke-linejoin:miter;stroke-opacity:1;marker-end:url(#Arrow2Lend)"
       d="m 236.02639,80.048771 42.76614,0"
       id="path4390-8" />
    <path
       style="fill:none;stroke:#000000;stroke-width:1.05855358px;stroke-linecap:butt;stroke-linejoin:miter;stroke-opacity:1;marker-end:url(#Arrow2Lend)"
       d="m 368.90107,80.048771 42.76614,0"
       id="path4390-9" />
  </g>
</svg>
